{"help": "https://data.gov.sg/api/3/action/help_show?name=datastore_search", "success": true, "result": {"resource_id": "139a3035-e624-4f56-b63f-89ae28d4ae4c", "fields": [{"type": "int4", "id": "_id"}, {"type": "text", "id": "car_park_no"}, {"type": "text", "id": "address"}, {"type": "numeric", "id": "x_coord"}, {"type": "numeric", "id": "y_coord"}, {"type": "text", "id": "car_park_type"}, {"type": "text", "id": "type_of_parking_system"}, {"type": "text", "id": "short_term_parking"}, {"type": "text", "id": "free_parking"}, {"type": "text", "id": "night_parking"}, {"type": "numeric", "id": "car_park_decks"}, {"type": "numeric", "id": "gantry_height"}, {"type": "text", "id": "car_park_basement"}, {"type": "int8", "id": "_full_count"}, {"type": "float4", "id": "rank"}], "q": "BLK 810 CHOA CHU KANG AVE 7", "records": [{"_full_count": "73", "short_term_parking": "WHOLE DAY", "car_park_type": "MULTI-STOREY CAR PARK", "y_coord": "39560.1044", "x_coord": "18305.5202", "rank": 0.482726, "free_parking": "SUN & PH FR 7AM-10.30PM", "gantry_height": "2.15", "car_park_basement": "N", "night_parking": "YES", "address": "BLK 810 CHOA CHU KANG AVE 7", "car_park_decks": "7", "_id": 1, "car_park_no": "CK76", "type_of_parking_system": "ELECTRONIC PARKING"}], "_links": {"start": "/api/action/datastore_search?q=BLK+810+CHOA+CHU+KANG+AVE+7&limit=1&resource_id=139a3035-e624-4f56-b63f-89ae28d4ae4c", "next": "/api/action/datastore_search?q=BLK+810+CHOA+CHU+KANG+AVE+7&offset=1&limit=1&resource_id=139a3035-e624-4f56-b63f-89ae28d4ae4c"}, "limit": 1, "total": 73}}